{
  "page": 1,
  "total_results": 281,
  "total_pages": 15,
  "results": [
    {
      "known_for_department": "Acting",
      "id": 71580,
      "name": "Benedict Cumberbatch",
      "known_for": [
        {
          "poster_path": "/7WsyChQLEftFiDOVTGkv3hFpyyt.jpg",
          "vote_count": 20097,
          "video": false,
          "media_type": "movie",
          "id": 299536,
          "adult": false,
          "backdrop_path": "/lmZFxXgJE3vgrciwuDib0N8CfQo.jpg",
          "original_language": "en",
          "original_title": "Avengers: Infinity War",
          "genre_ids": [
            12,
            28,
            878
          ],
          "title": "Avengers: Infinity War",
          "vote_average": 8.3,
          "overview": "As the Avengers and their allies have continued to protect the world from threats too large for any one hero to handle, a new danger has emerged from the cosmic shadows: Thanos. A despot of intergalactic infamy, his goal is to collect all six Infinity Stones, artifacts of unimaginable power, and use them to inflict his twisted will on all of reality. Everything the Avengers have fought for has led up to this moment - the fate of Earth and existence itself has never been more uncertain.",
          "release_date": "2018-04-25"
        },
        {
          "poster_path": "/uZpmwyfL6sIq0yzn5Dbar8QXRNa.jpg",
          "vote_count": 15942,
          "video": false,
          "media_type": "movie",
          "id": 284052,
          "adult": false,
          "backdrop_path": "/aL53oMdZKZRJRH8txH07DLuleF9.jpg",
          "original_language": "en",
          "original_title": "Doctor Strange",
          "genre_ids": [
            28,
            12,
            14,
            878
          ],
          "title": "Doctor Strange",
          "vote_average": 7.4,
          "overview": "After his career is destroyed, a brilliant but arrogant surgeon gets a new lease on life when a sorcerer takes him under her wing and trains him to defend the world against evil.",
          "release_date": "2016-10-25"
        },
        {
          "poster_path": "/or06FN3Dka5tukK1e9sl16pB3iy.jpg",
          "vote_count": 15600,
          "video": false,
          "media_type": "movie",
          "id": 299534,
          "adult": false,
          "backdrop_path": "/orjiB3oUIsyz60hoEqkiGpy5CeO.jpg",
          "original_language": "en",
          "original_title": "Avengers: Endgame",
          "genre_ids": [
            12,
            878,
            28
          ],
          "title": "Avengers: Endgame",
          "vote_average": 8.3,
          "overview": "After the devastating events of Avengers: Infinity War, the universe is in ruins due to the efforts of the Mad Titan, Thanos. With the help of remaining allies, the Avengers must assemble once more in order to undo Thanos' actions and restore order to the universe once and for all, no matter what consequences may be in store.",
          "release_date": "2019-04-24"
        }
      ],
      "popularity": 18.131,
      "profile_path": "/fBEucxECxGLKVHBznO0qHtCGiMO.jpg",
      "adult": false,
      "media_type": "person",
      "gender": 2
    }
  ]
}