{
  "page": 1,
  "total_results": 1371,
  "total_pages": 69,
  "results": [
    {
      "original_name": "I Am Not an Animal",
      "genre_ids": [
        16,
        35
      ],
      "name": "I Am Not an Animal",
      "popularity": 15.332,
      "origin_country": [
        "GB"
      ],
      "vote_count": 549,
      "first_air_date": "2004-05-10",
      "backdrop_path": null,
      "original_language": "en",
      "id": 100,
      "vote_average": 9.4,
      "overview": "I Am Not An Animal is an animated comedy series about the only six talking animals in the world, whose cosseted existence in a vivisection unit is turned upside down when they are liberated by animal rights activists.",
      "poster_path": "/qG59J1Q7rpBc1dvku4azbzcqo8h.jpg"
    }
  ]
}